// Jest Snapshot v1, https://goo.gl/fbAQLP

exports[`DoubleColorIcon CASE (case) dimensions 56 1`] = `
.c0 {
  position: relative;
  box-sizing: border-box;
  vertical-align: middle;
  display: inline-block;
  height: 56px;
  width: 56px;
  overflow: hidden;
}

.c2 {
  position: absolute;
  display: block;
  width: 100%;
  height: 100%;
  fill: #FFF2AE;
}

.c4 {
  position: absolute;
  display: block;
  width: 100%;
  height: 100%;
  fill: #000000;
}

.c3 {
  z-index: 2;
  top: 0;
  left: 0;
}

.c1 {
  z-index: 1;
  top: 2px;
  left: 2px;
}

<div
  className="c0"
  data-component="DoubleColorIcon"
  data-type="case"
  title={null}
>
  <svg
    className="c1 c2"
    focusable="false"
    viewBox="0 0 56 56"
  >
    <path
      d="M23,32 L11,32 L11,29 L17,29 L17,15 L20,15 L20,29 L23,29 L23,25 L33,25 L33,35 L23,35 L23,32 Z M45,32 L33,32 L33,29 L45,29 L45,15 L11,15 L11,39 L45,39 L45,32 Z M48,39 L52,39 L52,42 L4,42 L4,39 L8,39 L8,12 L20,12 L20,6 L36,6 L36,12 L48,12 L48,39 Z M33,12 L33,9 L23,9 L23,12 L33,12 Z M36,15 L39,15 L39,29 L36,29 L36,15 Z M26,28 L26,32 L30,32 L30,28 L26,28 Z"
    />
  </svg>
  <svg
    className="c3 c4"
    focusable="false"
    viewBox="0 0 56 56"
  >
    <path
      d="M23,32 L11,32 L11,29 L17,29 L17,15 L20,15 L20,29 L23,29 L23,25 L33,25 L33,35 L23,35 L23,32 Z M45,32 L33,32 L33,29 L45,29 L45,15 L11,15 L11,39 L45,39 L45,32 Z M48,39 L52,39 L52,42 L4,42 L4,39 L8,39 L8,12 L20,12 L20,6 L36,6 L36,12 L48,12 L48,39 Z M33,12 L33,9 L23,9 L23,12 L33,12 Z M36,15 L39,15 L39,29 L36,29 L36,15 Z M26,28 L26,32 L30,32 L30,28 L26,28 Z"
    />
  </svg>
</div>
`;

exports[`DoubleColorIcon PERCENT (percent) dimensions 56 1`] = `
.c0 {
  position: relative;
  box-sizing: border-box;
  vertical-align: middle;
  display: inline-block;
  height: 56px;
  width: 56px;
  overflow: hidden;
}

.c2 {
  position: absolute;
  display: block;
  width: 100%;
  height: 100%;
  fill: #FFF2AE;
}

.c4 {
  position: absolute;
  display: block;
  width: 100%;
  height: 100%;
  fill: #000000;
}

.c3 {
  z-index: 2;
  top: 0;
  left: 0;
}

.c1 {
  z-index: 1;
  top: 2px;
  left: 2px;
}

<div
  className="c0"
  data-component="DoubleColorIcon"
  data-type="percent"
  title={null}
>
  <svg
    className="c1 c2"
    focusable="false"
    viewBox="0 0 56 56"
  >
    <path
      d="M45,9 L11,9 L11,34 L45,34 L45,9 Z M48,9 L48,37 L8,37 L8,6 L48,6 L48,9 Z M2,39 L54,39 L54,42 L2,42 L2,39 Z M34.5,30 C32.8923048,30 31.4067332,29.1423049 30.6028856,27.75 C29.799038,26.3576952 29.799038,24.6423048 30.6028856,23.25 C31.4067332,21.8576951 32.8923048,21 34.5,21 C36.9852814,21 39,23.0147186 39,25.5 C39,27.9852814 36.9852814,30 34.5,30 Z M22.5,21 C20.0147186,21 18,18.9852814 18,16.5 C18,14.0147186 20.0147186,12 22.5,12 C24.9852814,12 27,14.0147186 27,16.5 C27,18.9852814 24.9852814,21 22.5,21 Z M22.097,30.023 L19.903,27.977 L33.903,12.977 L36.097,15.023 L22.097,30.023 Z M22.5,18 C23.3284271,18 24,17.3284271 24,16.5 C24,15.6715729 23.3284271,15 22.5,15 C21.6715729,15 21,15.6715729 21,16.5 C21,17.3284271 21.6715729,18 22.5,18 Z M34.5,27 C35.0358984,27 35.531089,26.7141016 35.7990382,26.25 C36.0669874,25.7858984 36.0669874,25.2141016 35.7990382,24.75 C35.531089,24.2858984 35.0358984,24 34.5,24 C33.6715729,24 33,24.6715729 33,25.5 C33,26.3284271 33.6715729,27 34.5,27 Z"
    />
  </svg>
  <svg
    className="c3 c4"
    focusable="false"
    viewBox="0 0 56 56"
  >
    <path
      d="M45,9 L11,9 L11,34 L45,34 L45,9 Z M48,9 L48,37 L8,37 L8,6 L48,6 L48,9 Z M2,39 L54,39 L54,42 L2,42 L2,39 Z M34.5,30 C32.8923048,30 31.4067332,29.1423049 30.6028856,27.75 C29.799038,26.3576952 29.799038,24.6423048 30.6028856,23.25 C31.4067332,21.8576951 32.8923048,21 34.5,21 C36.9852814,21 39,23.0147186 39,25.5 C39,27.9852814 36.9852814,30 34.5,30 Z M22.5,21 C20.0147186,21 18,18.9852814 18,16.5 C18,14.0147186 20.0147186,12 22.5,12 C24.9852814,12 27,14.0147186 27,16.5 C27,18.9852814 24.9852814,21 22.5,21 Z M22.097,30.023 L19.903,27.977 L33.903,12.977 L36.097,15.023 L22.097,30.023 Z M22.5,18 C23.3284271,18 24,17.3284271 24,16.5 C24,15.6715729 23.3284271,15 22.5,15 C21.6715729,15 21,15.6715729 21,16.5 C21,17.3284271 21.6715729,18 22.5,18 Z M34.5,27 C35.0358984,27 35.531089,26.7141016 35.7990382,26.25 C36.0669874,25.7858984 36.0669874,25.2141016 35.7990382,24.75 C35.531089,24.2858984 35.0358984,24 34.5,24 C33.6715729,24 33,24.6715729 33,25.5 C33,26.3284271 33.6715729,27 34.5,27 Z"
    />
  </svg>
</div>
`;

exports[`DoubleColorIcon WALLET (wallet) dimensions 56 1`] = `
.c0 {
  position: relative;
  box-sizing: border-box;
  vertical-align: middle;
  display: inline-block;
  height: 56px;
  width: 56px;
  overflow: hidden;
}

.c2 {
  position: absolute;
  display: block;
  width: 100%;
  height: 100%;
  fill: #FFF2AE;
}

.c4 {
  position: absolute;
  display: block;
  width: 100%;
  height: 100%;
  fill: #000000;
}

.c3 {
  z-index: 2;
  top: 0;
  left: 0;
}

.c1 {
  z-index: 1;
  top: 2px;
  left: 2px;
}

<div
  className="c0"
  data-component="DoubleColorIcon"
  data-type="wallet"
  title={null}
>
  <svg
    className="c1 c2"
    focusable="false"
    viewBox="0 0 56 56"
  >
    <path
      d="M8,39 L8,14 L8.733,14 L33.536,4.5 L33.536,10.062 L41.482,8.801 L41.482,14 L48,14 L48,39 L51,39 L51,42 L5,42 L5,39 L8,39 Z M45,39 L45,34 L33,34 L33,21 L45,21 L45,17 L17,17 L17,39 L45,39 Z M14,39 L14,17 L11,17 L11,39 L14,39 Z M27.864,14 L38.482,14 L38.482,12.315 L27.864,14 Z M30.536,10.538 L30.536,8.861 L23.059,11.725 L30.536,10.538 Z M36,24 L36,31 L45,31 L45,24 L36,24 Z M39,26 L42,26 L42,29 L39,29 L39,26 Z"
    />
  </svg>
  <svg
    className="c3 c4"
    focusable="false"
    viewBox="0 0 56 56"
  >
    <path
      d="M8,39 L8,14 L8.733,14 L33.536,4.5 L33.536,10.062 L41.482,8.801 L41.482,14 L48,14 L48,39 L51,39 L51,42 L5,42 L5,39 L8,39 Z M45,39 L45,34 L33,34 L33,21 L45,21 L45,17 L17,17 L17,39 L45,39 Z M14,39 L14,17 L11,17 L11,39 L14,39 Z M27.864,14 L38.482,14 L38.482,12.315 L27.864,14 Z M30.536,10.538 L30.536,8.861 L23.059,11.725 L30.536,10.538 Z M36,24 L36,31 L45,31 L45,24 L36,24 Z M39,26 L42,26 L42,29 L39,29 L39,26 Z"
    />
  </svg>
</div>
`;
